
xiaoyou.png
size: 359,131
format: RGBA8888
filter: Linear,Linear
repeat: none
images/xu1
  rotate: false
  xy: 121, 2
  size: 117, 127
  orig: 117, 127
  offset: 0, 0
  index: -1
images/xu2
  rotate: false
  xy: 240, 2
  size: 117, 127
  orig: 117, 127
  offset: 0, 0
  index: -1
images/xy
  rotate: false
  xy: 2, 2
  size: 117, 127
  orig: 117, 127
  offset: 0, 0
  index: -1
